{
  "REDIS_URI": "redis://:redispw@localhost:6379",
  "POSTGRE_URI": "postgres://postgres:postgrespw@localhost:5432/tradebot?schema=public",
  "APP_PORT": 8000,
  "HOST": "0.0.0.0",
  "app": {
    "secret": "trade_bot_112233@",
    "accessTokenExpiresIn": "30d",
    "refreshTokenExpiresIn": "30d",
    "name": "APP local"
  }
}
